0000000000000000000100000000
0000010000001000000000000000
0011110001111000011010001101
0001101000110100001000000100
0000100000010000000000000000
0000000000000000000000000010
0000000000000000000000000010
0000010000001000000100000000
0011110001111000000000000000
0001101000110100000100000010
0000100000010000001000000100
0000000000000000001000000100
